<svg width="20" height="22" viewBox="0 0 20 22" fill="none" xmlns="http://www.w3.org/2000/svg">
<path d="M9.73438 11C12.4958 11 14.7344 8.76142 14.7344 6C14.7344 3.23858 12.4958 1 9.73438 1C6.97295 1 4.73438 3.23858 4.73438 6C4.73438 8.76142 6.97295 11 9.73438 11Z" stroke="white" stroke-width="2"/>
<path d="M14.7344 12.9998H15.0864C15.8175 13 16.5234 13.2671 17.0714 13.751C17.6194 14.235 17.9718 14.9023 18.0624 15.6278L18.4534 18.7518C18.4886 19.0332 18.4635 19.3189 18.3798 19.5899C18.2961 19.8609 18.1558 20.111 17.9681 20.3236C17.7803 20.5361 17.5495 20.7064 17.291 20.823C17.0324 20.9396 16.7521 20.9998 16.4684 20.9998H3.00044C2.71682 20.9998 2.43643 20.9396 2.17788 20.823C1.91933 20.7064 1.68854 20.5361 1.50081 20.3236C1.31309 20.111 1.17272 19.8609 1.08904 19.5899C1.00536 19.3189 0.980267 19.0332 1.01544 18.7518L1.40544 15.6278C1.49613 14.902 1.84885 14.2343 2.39727 13.7504C2.94568 13.2664 3.65201 12.9995 4.38344 12.9998H4.73444" stroke="white" stroke-width="2" stroke-linecap="round" stroke-linejoin="round"/>
</svg>
