<svg width="24" height="24" viewBox="0 0 24 24" fill="none" xmlns="http://www.w3.org/2000/svg">
<path d="M21.8558 15.9286L16.9998 11.2143L21.8558 6.5L22.9998 7.60786L19.2878 11.2143L22.9998 14.8207L21.8558 15.9286Z" fill="#8380F9" stroke="#8380F9" stroke-width="0.4"/>
<path d="M17.0002 23.0005H15.4002V19.072C15.4002 18.03 14.9787 17.0308 14.2286 16.294C13.4784 15.5573 12.461 15.1434 11.4001 15.1434H6.60007C5.53919 15.1434 4.52176 15.5573 3.77161 16.294C3.02145 17.0308 2.60002 18.03 2.60002 19.072V23.0005H1V19.072C1 17.6133 1.59001 16.2143 2.64022 15.1829C3.69044 14.1514 5.11484 13.572 6.60007 13.572H11.4001C12.8854 13.572 14.3098 14.1514 15.36 15.1829C16.4102 16.2143 17.0002 17.6133 17.0002 19.072V23.0005Z" fill="#8380F9" stroke="#8380F9" stroke-width="0.4"/>
<path d="M9.0004 2.57143C9.79153 2.57143 10.5649 2.80184 11.2227 3.23351C11.8805 3.66519 12.3932 4.27875 12.696 4.9966C12.9987 5.71445 13.0779 6.50436 12.9236 7.26643C12.7692 8.02849 12.3883 8.7285 11.8289 9.27792C11.2694 9.82734 10.5567 10.2015 9.78077 10.3531C9.00484 10.5047 8.20056 10.4269 7.46965 10.1295C6.73873 9.83218 6.11401 9.32865 5.67448 8.6826C5.23495 8.03655 5.00035 7.277 5.00035 6.5C5.00035 5.45808 5.42178 4.45883 6.17194 3.72208C6.92209 2.98533 7.93952 2.57143 9.0004 2.57143ZM9.0004 1C7.89281 1 6.81009 1.32257 5.88917 1.92692C4.96824 2.53127 4.25047 3.39025 3.82661 4.39524C3.40276 5.40024 3.29186 6.5061 3.50794 7.573C3.72402 8.63989 4.25737 9.6199 5.04055 10.3891C5.82374 11.1583 6.82157 11.6821 7.90788 11.8943C8.99419 12.1065 10.1202 11.9976 11.1435 11.5813C12.1667 11.1651 13.0413 10.4601 13.6567 9.55564C14.272 8.65117 14.6005 7.5878 14.6005 6.5C14.6005 5.04131 14.0105 3.64236 12.9602 2.61091C11.91 1.57946 10.4856 1 9.0004 1Z" fill="#8380F9" stroke="#8380F9" stroke-width="0.4"/>
</svg>
