<svg width="20" height="22" viewBox="0 0 20 22" fill="none" xmlns="http://www.w3.org/2000/svg">
<path d="M9.9998 15.4004C11.1295 15.4004 12.0453 14.505 12.0453 13.4004C12.0453 12.2958 11.1295 11.4004 9.9998 11.4004C8.87013 11.4004 7.95435 12.2958 7.95435 13.4004C7.95435 14.505 8.87013 15.4004 9.9998 15.4004Z" stroke="#8380F9" stroke-width="2" stroke-linecap="round" stroke-linejoin="round"/>
<path d="M10 15.4004V17.8004" stroke="#8380F9" stroke-width="2" stroke-linecap="round" stroke-linejoin="round"/>
<path d="M18.1818 8.20001H1.81818C1.36631 8.20001 1 8.55818 1 9.00001V20.2C1 20.6418 1.36631 21 1.81818 21H18.1818C18.6337 21 19 20.6418 19 20.2V9.00001C19 8.55818 18.6337 8.20001 18.1818 8.20001Z" stroke="#8380F9" stroke-width="2" stroke-linecap="round" stroke-linejoin="round"/>
<path d="M6.31848 8.20001V4.60001C6.31848 3.64523 6.70639 2.72955 7.39686 2.05442C8.08734 1.37929 9.02382 1 10.0003 1C10.9768 1 11.9133 1.37929 12.6037 2.05442C13.2942 2.72955 13.6821 3.64523 13.6821 4.60001V8.20001" stroke="#8380F9" stroke-width="2" stroke-linecap="round" stroke-linejoin="round"/>
</svg>
