<svg width="24" height="22" viewBox="0 0 24 22" fill="none" xmlns="http://www.w3.org/2000/svg">
<path fill-rule="evenodd" clip-rule="evenodd" d="M5.02884 1.79678C5.02884 3.15362 5.03381 3.49713 5.05331 3.48611C5.07289 3.47507 5.07289 3.47757 5.05331 3.49866C5.03692 3.51632 5.02884 3.59366 5.02884 3.73259C5.02884 3.87151 5.03692 3.94885 5.05331 3.96651C5.07289 3.9876 5.07289 3.99011 5.05331 3.97906C5.03377 3.96802 5.02884 4.66453 5.02884 7.43326C5.02884 10.202 5.03377 10.8985 5.05331 10.8875C5.07289 10.8764 5.07289 10.8789 5.05331 10.9C5.0382 10.9163 5.02884 10.9833 5.02884 11.0752C5.02884 11.1671 5.0382 11.2341 5.05331 11.2504C5.07289 11.2715 5.07289 11.274 5.05331 11.2629C5.03387 11.2519 5.02884 11.4724 5.02884 12.337V13.4248H5.43024H5.83163V12.7356V12.0463L5.768 11.9769L5.70436 11.9074L5.76804 11.9649L5.83171 12.0224L5.83158 6.47436C5.8315 3.42292 5.83424 0.923461 5.83769 0.920015C5.84473 0.912986 6.71863 0.912125 13.4435 0.912653L18.1673 0.913025V1.77791C18.1673 2.57318 18.1701 2.64604 18.2016 2.68316C18.2342 2.7216 18.2342 2.72226 18.2016 2.69699C18.169 2.67179 18.1673 2.72393 18.1673 3.73135C18.1673 4.57436 18.1723 4.78939 18.1918 4.77841C18.2114 4.76737 18.2114 4.76987 18.1918 4.79096C18.1724 4.81179 18.1673 5.36321 18.1673 7.41115C18.1673 9.85303 18.1693 10.0073 18.2016 10.0453C18.2342 10.0838 18.2342 10.0845 18.2016 10.0592C18.169 10.034 18.1673 10.0834 18.1673 11.036C18.1673 11.9887 18.169 12.0381 18.2016 12.0129C18.2342 11.9876 18.2342 11.9883 18.2016 12.0267C18.1704 12.0635 18.1673 12.1278 18.1673 12.746V13.4248H18.5687H18.9701L18.97 6.75794L18.97 0.0910645L11.9994 0.0923566L5.02884 0.0936294V1.79678ZM6.1645 7.31578V13.4248H6.57561H6.9867L6.9917 11.3053C6.99563 9.6269 7.00176 9.18519 7.02115 9.18325C7.03462 9.1819 7.77362 9.1797 8.66339 9.17835C10.201 9.17602 10.2799 9.1742 10.2547 9.14164C10.2317 9.11204 10.2339 9.11229 10.2706 9.14352C10.31 9.17714 10.3561 9.17949 10.9272 9.17692C11.265 9.17542 11.5564 9.17992 11.5746 9.18693C11.6049 9.19856 11.6079 9.25572 11.6079 9.83758C11.6079 10.4712 11.6082 10.4758 11.6519 10.5255L11.696 10.5756L11.6519 10.5385L11.6079 10.5013V10.9069C11.6079 11.2257 11.6131 11.3095 11.6323 11.2986C11.6519 11.2876 11.6519 11.2901 11.6323 11.3112C11.6134 11.3316 11.6079 11.5734 11.6079 12.3812V13.4248H11.9991H12.3904L12.3956 12.343C12.4026 10.8975 12.397 10.5603 12.3661 10.5788C12.3474 10.59 12.3475 10.5866 12.3663 10.5633C12.3843 10.5411 12.3919 10.359 12.3957 9.85953L12.4009 9.1857L14.7065 9.18066L17.0121 9.17563V11.3002V13.4248H17.4232H17.8344V12.9134C17.8344 12.4292 17.8326 12.4033 17.8002 12.4284C17.7675 12.4537 17.7675 12.453 17.8002 12.4146C17.8321 12.377 17.8344 12.282 17.8344 11.036C17.8344 9.79002 17.8321 9.6951 17.8002 9.6575C17.7676 9.61911 17.7676 9.61842 17.8001 9.64366C17.8327 9.6689 17.8344 9.49197 17.8343 6.00284C17.8343 2.5422 17.8323 2.33322 17.8001 2.29522C17.7675 2.2569 17.7675 2.25623 17.8002 2.28149C17.8326 2.30661 17.8344 2.27885 17.8344 1.75737V1.20673H11.9995H6.1645V7.31578ZM9.73064 1.61302C9.75498 1.64407 9.7543 1.64476 9.72324 1.62042C9.70441 1.60564 9.68898 1.59021 9.68898 1.58616C9.68898 1.57004 9.70505 1.5804 9.73064 1.61302ZM6.73233 1.82047C6.73233 1.82419 6.71252 1.84401 6.68828 1.86453L6.64422 1.90183L6.68152 1.85777C6.71657 1.81638 6.73233 1.80481 6.73233 1.82047ZM14.0946 1.82047C14.0946 1.82419 14.0747 1.84401 14.0505 1.86453L14.0065 1.90183L14.0438 1.85777C14.0788 1.81638 14.0946 1.80481 14.0946 1.82047ZM13.9575 1.96057L13.9115 2.00952H15.4618H17.0121V5.19132V8.37311L16.361 8.37456C15.2067 8.37711 12.4017 8.37067 12.3965 8.36546C12.392 8.36099 12.3903 6.78646 12.3909 3.14028L12.3911 2.00952H13.1415H13.8919L13.9379 1.96057C13.9632 1.93365 13.9883 1.91162 13.9937 1.91162C13.9991 1.91162 13.9828 1.93365 13.9575 1.96057ZM6.57569 1.97712C6.57569 1.98084 6.55588 2.00065 6.53163 2.02117L6.48758 2.05847L6.52488 2.01442C6.55993 1.97302 6.57569 1.96145 6.57569 1.97712ZM10.8677 2.00952H11.6079L11.6086 2.75847C11.609 3.17038 11.6087 3.68215 11.6079 3.89573C11.6067 4.20706 11.6114 4.28123 11.6316 4.26977C11.6518 4.25834 11.652 4.26073 11.6323 4.28187C11.6131 4.30263 11.6079 4.74185 11.6079 6.34068V8.37311L9.73303 8.3773C8.09329 8.38097 7.70384 8.38053 7.10926 8.37439L6.98688 8.37311V5.19132V2.00952H8.54468C9.78523 2.00952 10.0997 2.00453 10.0887 1.98505C10.0776 1.96547 10.0801 1.96547 10.1012 1.98505C10.1213 2.00373 10.3027 2.00952 10.8677 2.00952ZM6.41905 2.13376C6.41905 2.13748 6.39923 2.15729 6.37499 2.17781L6.33094 2.21511L6.36824 2.17106C6.40329 2.12967 6.41905 2.11809 6.41905 2.13376ZM6.2624 2.2904C6.2624 2.29412 6.24259 2.31394 6.21835 2.33446L6.17429 2.37176L6.21159 2.3277C6.24664 2.28631 6.2624 2.27474 6.2624 2.2904ZM5.79247 2.76033C5.79247 2.76405 5.77266 2.78386 5.74842 2.80438L5.70436 2.84168L5.74166 2.79763C5.77671 2.75624 5.79247 2.74466 5.79247 2.76033ZM5.63583 2.91697C5.63583 2.92069 5.61602 2.94051 5.59177 2.96103L5.54772 2.99833L5.58502 2.95427C5.62007 2.91288 5.63583 2.90131 5.63583 2.91697ZM5.47919 3.07361C5.47919 3.07733 5.45937 3.09715 5.43513 3.11767L5.39108 3.15497L5.42838 3.11091C5.46343 3.06952 5.47919 3.05795 5.47919 3.07361ZM5.32254 3.23025C5.32254 3.23397 5.30273 3.25379 5.27849 3.27431L5.23443 3.31161L5.27173 3.26755C5.30678 3.22616 5.32254 3.21459 5.32254 3.23025ZM5.1659 3.3869C5.1659 3.39062 5.14609 3.41043 5.12184 3.43095L5.07779 3.46825L5.11509 3.4242C5.15014 3.3828 5.1659 3.37123 5.1659 3.3869ZM12.3715 3.54354C12.3715 3.54726 12.3517 3.56707 12.3274 3.58759L12.2834 3.62489L12.3207 3.58084C12.3557 3.53945 12.3715 3.52787 12.3715 3.54354ZM12.2149 3.70018C12.2149 3.7039 12.195 3.72372 12.1708 3.74424L12.1267 3.78154L12.164 3.73748C12.1991 3.69609 12.2149 3.68452 12.2149 3.70018ZM11.9713 3.85496L12.0288 3.9186L11.9652 3.86109C11.9059 3.80748 11.8926 3.79133 11.9077 3.79133C11.9111 3.79133 11.9397 3.81995 11.9713 3.85496ZM12.0803 3.96265C12.1046 3.99371 12.1039 3.99439 12.0729 3.97006C12.0403 3.94446 12.0299 3.92839 12.046 3.92839C12.0501 3.92839 12.0655 3.94382 12.0803 3.96265ZM11.9016 4.01347C11.9016 4.01719 11.8817 4.037 11.8575 4.05752L11.8135 4.09482L11.8508 4.05077C11.8858 4.00937 11.9016 3.9978 11.9016 4.01347ZM11.7449 4.17011C11.7449 4.17383 11.7251 4.19364 11.7009 4.21416L11.6568 4.25146L11.6941 4.20741C11.7292 4.16602 11.7449 4.15444 11.7449 4.17011ZM6.83274 5.74446C6.85708 5.77552 6.8564 5.7762 6.82534 5.75186C6.79272 5.72627 6.78236 5.7102 6.79848 5.7102C6.80253 5.7102 6.81796 5.72562 6.83274 5.74446ZM10.0316 8.90178C10.0511 8.92332 10.0627 8.94094 10.0573 8.94094C10.0519 8.94094 10.0315 8.92332 10.0121 8.90178C9.99257 8.88024 9.98102 8.86262 9.9864 8.86262C9.99179 8.86262 10.0122 8.88024 10.0316 8.90178ZM14.0358 8.90791C14.0358 8.91128 14.0072 8.93992 13.9722 8.97155L13.9086 9.02905L13.9661 8.96542C14.0197 8.90611 14.0358 8.89277 14.0358 8.90791ZM17.1125 8.95563C17.1368 8.98668 17.1361 8.98737 17.1051 8.96303C17.0724 8.93744 17.0621 8.92136 17.0782 8.92136C17.0822 8.92136 17.0977 8.93679 17.1125 8.95563ZM10.1883 9.05842C10.2078 9.07996 10.2193 9.09758 10.2139 9.09758C10.2085 9.09758 10.1882 9.07996 10.1687 9.05842C10.1492 9.03689 10.1377 9.01926 10.143 9.01926C10.1484 9.01926 10.1688 9.03689 10.1883 9.05842ZM13.84 9.10434C13.84 9.10806 13.8202 9.12788 13.796 9.1484L13.7519 9.1857L13.7892 9.14164C13.8243 9.10025 13.84 9.08868 13.84 9.10434ZM11.7547 10.6248C11.7742 10.6464 11.7857 10.664 11.7804 10.664C11.775 10.664 11.7546 10.6464 11.7351 10.6248C11.7156 10.6033 11.7041 10.5857 11.7095 10.5857C11.7149 10.5857 11.7352 10.6033 11.7547 10.6248ZM12.2736 10.6708C12.2736 10.6745 12.2538 10.6943 12.2295 10.7148L12.1855 10.7521L12.2228 10.7081C12.2578 10.6667 12.2736 10.6551 12.2736 10.6708ZM11.9114 10.7815C11.9308 10.803 11.9424 10.8207 11.937 10.8207C11.9316 10.8207 11.9113 10.803 11.8918 10.7815C11.8723 10.76 11.8607 10.7423 11.8661 10.7423C11.8715 10.7423 11.8919 10.76 11.9114 10.7815ZM12.0546 10.8752C12.0673 10.8624 12.0778 10.8571 12.0778 10.8633C12.0778 10.8695 12.0659 10.8845 12.0514 10.8965C12.0311 10.9133 12.0163 10.9082 11.9878 10.8744C11.9506 10.8306 11.9506 10.8305 11.9909 10.8644C12.0221 10.8907 12.0367 10.8931 12.0546 10.8752ZM11.9799 10.9641C11.9799 10.9676 11.9557 10.9918 11.926 11.0179L11.8722 11.0654L11.9197 11.0116C11.964 10.9612 11.9799 10.9487 11.9799 10.9641ZM12.1267 10.9969C12.1462 11.0184 12.1578 11.036 12.1524 11.036C12.147 11.036 12.1266 11.0184 12.1072 10.9969C12.0877 10.9753 12.0761 10.9577 12.0815 10.9577C12.0869 10.9577 12.1073 10.9753 12.1267 10.9969ZM12.2246 11.0948C12.2441 11.1163 12.2557 11.1339 12.2503 11.1339C12.2449 11.1339 12.2245 11.1163 12.2051 11.0948C12.1856 11.0732 12.174 11.0556 12.1794 11.0556C12.1848 11.0556 12.2052 11.0732 12.2246 11.0948ZM11.8037 11.1407C11.8037 11.1444 11.7838 11.1642 11.7596 11.1847L11.7156 11.222L11.7529 11.178C11.7879 11.1366 11.8037 11.125 11.8037 11.1407ZM12.3225 11.1927C12.342 11.2142 12.3536 11.2318 12.3482 11.2318C12.3428 11.2318 12.3224 11.2142 12.303 11.1927C12.2835 11.1711 12.2719 11.1535 12.2773 11.1535C12.2827 11.1535 12.3031 11.1711 12.3225 11.1927ZM5.15734 11.3542L5.21485 11.4178L5.15122 11.3603C5.09191 11.3067 5.07857 11.2906 5.09371 11.2906C5.09708 11.2906 5.12572 11.3192 5.15734 11.3542ZM5.31399 11.5109L5.37149 11.5745L5.30786 11.517C5.24855 11.4634 5.23521 11.4472 5.25035 11.4472C5.25372 11.4472 5.28236 11.4758 5.31399 11.5109ZM5.47063 11.6675L5.52814 11.7311L5.4645 11.6736C5.40519 11.62 5.39186 11.6039 5.40699 11.6039C5.41036 11.6039 5.43901 11.6325 5.47063 11.6675ZM5.62727 11.8241L5.68478 11.8878L5.62115 11.8303C5.56184 11.7767 5.5485 11.7605 5.56364 11.7605C5.56701 11.7605 5.59565 11.7891 5.62727 11.8241ZM6.25385 12.4507L6.31136 12.5143L6.24772 12.4568C6.18841 12.4032 6.17508 12.3871 6.19021 12.3871C6.19358 12.3871 6.22222 12.4157 6.25385 12.4507ZM6.41049 12.6074L6.468 12.671L6.40436 12.6135C6.34505 12.5599 6.33172 12.5437 6.34685 12.5437C6.35022 12.5437 6.37887 12.5723 6.41049 12.6074ZM6.56713 12.764L6.62464 12.8276L6.56101 12.7701C6.5017 12.7165 6.48836 12.7004 6.5035 12.7004C6.50687 12.7004 6.53551 12.729 6.56713 12.764ZM6.72378 12.9206L6.78129 12.9843L6.71765 12.9268C6.65834 12.8732 6.64501 12.857 6.66014 12.857C6.66351 12.857 6.69215 12.8856 6.72378 12.9206ZM1.21066 14.0024V14.4038H11.9995H22.7883V14.0024V13.6011H11.9995H1.21066V14.0024ZM2.1701 17.4091V20.2381L2.75751 20.2381L3.34492 20.2382V17.4091V14.5801H2.75751H2.1701V17.4091ZM4.48086 17.4094L4.48106 20.2388H5.06817H5.65529L5.65527 17.4094V14.5801H5.06796H4.48064L4.48086 17.4094ZM6.1645 17.2724V19.9646H6.38968C6.55672 19.9646 6.61487 19.9583 6.61493 19.9402C6.62572 16.7844 6.62374 16.3814 6.59741 16.3915C6.57606 16.3997 6.57508 16.396 6.5929 16.3745C6.60927 16.3548 6.61689 16.0998 6.62014 15.4636L6.62464 14.5801H6.39457H6.1645V17.2724ZM6.79108 15.3742C6.79108 16.0039 6.79615 16.1655 6.81555 16.1546C6.83513 16.1435 6.83513 16.146 6.81555 16.1671C6.7963 16.1878 6.79108 16.6121 6.79108 18.1512V20.109L6.83513 20.159L6.87919 20.2091L6.83513 20.172C6.79117 20.1349 6.79108 20.1349 6.79108 20.1868V20.2388H7.37849H7.9659V17.4094V14.5801H7.37849H6.79108V15.3742ZM9.10156 17.4094V20.2388H9.55779C9.89565 20.2388 10.0208 20.2324 10.0404 20.2143C10.0615 20.1947 10.064 20.1947 10.0529 20.2143C10.0425 20.2327 10.0685 20.2388 10.1578 20.2388H10.2764V20.1201C10.2764 20.0309 10.2703 20.0049 10.2519 20.0153C10.2323 20.0264 10.2323 20.0239 10.2519 20.0028C10.2711 19.9821 10.2764 19.5969 10.2764 18.2144V16.4525L10.2323 16.4024L10.1883 16.3524L10.2323 16.3895L10.2764 16.4267V15.5034V14.5801H9.68898H9.10156V17.4094ZM11.4121 16.0718V17.5635L11.4561 17.6136L11.5002 17.6637L11.4561 17.6265L11.4121 17.5894V18.2116C11.4121 18.8012 11.4139 18.8324 11.4463 18.8073C11.479 18.782 11.479 18.7826 11.4463 18.8211C11.4151 18.8578 11.4121 18.9227 11.4121 19.5501V20.2388H11.9995H12.5869V19.4986C12.5869 18.9336 12.5811 18.7523 12.5624 18.7321C12.5428 18.711 12.5428 18.7085 12.5624 18.7196C12.5819 18.7306 12.5869 18.3124 12.5869 16.6567V14.5801H11.9995H11.4121V16.0718ZM13.7225 15.5504C13.7225 16.3211 13.7276 16.518 13.747 16.507C13.7666 16.496 13.7666 16.4985 13.747 16.5196C13.7278 16.5402 13.7225 16.9059 13.7225 18.2103V19.8747L13.7862 19.9441L13.8498 20.0135L13.7862 19.956L13.7225 19.8986V20.0687V20.2388H13.8914C14.0492 20.2388 14.0585 20.2365 14.0337 20.2045C14.0084 20.1719 14.0091 20.1719 14.0475 20.2045C14.0831 20.2347 14.1356 20.2388 14.4926 20.2388H14.8974V17.4094V14.5801H14.31H13.7225V15.5504ZM16.033 17.4094V20.2388H16.588C17.1009 20.2388 17.1455 20.236 17.1755 20.203C17.2053 20.17 17.2079 19.9456 17.2079 17.3736V14.5801H16.6204H16.033V17.4094ZM17.3796 15.4324C17.3744 16.2613 17.3754 16.2858 17.4135 16.327C17.4409 16.3567 17.4423 16.3617 17.4183 16.3436C17.3858 16.3192 17.3841 16.4079 17.3841 18.1392V19.9604L17.6089 19.9633L17.8337 19.9662L17.8342 18.3661L17.8347 16.7661L17.7905 16.7159L17.7463 16.6656L17.7904 16.7028L17.8344 16.74V15.66V14.5801H17.6097H17.3849L17.3796 15.4324ZM18.3435 15.9174C18.3435 16.9601 18.3489 17.2605 18.368 17.2811C18.3875 17.3021 18.3875 17.3046 18.3681 17.2937C18.3487 17.2827 18.3437 17.5833 18.3438 18.7593L18.3439 20.2388H18.9311H19.5183V19.342C19.5183 18.6517 19.5127 18.4391 19.4939 18.4188C19.4743 18.3978 19.4743 18.3952 19.4939 18.4063C19.5129 18.4171 19.5183 18.3611 19.5183 18.1535C19.5183 17.9458 19.5129 17.8899 19.4939 17.9006C19.4743 17.9117 19.4743 17.9092 19.4939 17.8881C19.513 17.8674 19.5183 17.5064 19.5183 16.2209V14.5801H18.9309H18.3435V15.9174ZM20.654 15.6496C20.654 16.6652 20.6557 16.7178 20.6883 16.6926C20.7209 16.6673 20.7209 16.668 20.6883 16.7064C20.6562 16.7442 20.654 16.8583 20.654 18.4928V20.2388H21.2414H21.8288V17.4094V14.5801H21.2414H20.654V15.6496ZM10.1491 16.3031C10.1686 16.3247 10.1802 16.3423 10.1748 16.3423C10.1694 16.3423 10.149 16.3247 10.1295 16.3031C10.1101 16.2816 10.0985 16.264 10.1039 16.264C10.1093 16.264 10.1296 16.2816 10.1491 16.3031ZM13.9183 16.349C13.9183 16.3528 13.8985 16.3726 13.8743 16.3931L13.8302 16.4304L13.8675 16.3863C13.9026 16.345 13.9183 16.3334 13.9183 16.349ZM11.5589 17.7129C11.5784 17.7344 11.5899 17.7521 11.5846 17.7521C11.5792 17.7521 11.5588 17.7344 11.5393 17.7129C11.5198 17.6914 11.5083 17.6737 11.5137 17.6737C11.5191 17.6737 11.5394 17.6914 11.5589 17.7129ZM12.5086 17.7588C12.5086 17.7625 12.4887 17.7824 12.4645 17.8029L12.4204 17.8402L12.4577 17.7961C12.4928 17.7547 12.5086 17.7432 12.5086 17.7588ZM11.7156 17.8696C11.735 17.8911 11.7466 17.9087 11.7412 17.9087C11.7358 17.9087 11.7155 17.8911 11.696 17.8696C11.6765 17.848 11.6649 17.8304 11.6703 17.8304C11.6757 17.8304 11.6961 17.848 11.7156 17.8696ZM12.3519 17.9155C12.3519 17.9192 12.3321 17.939 12.3079 17.9595L12.2638 17.9968L12.3011 17.9528C12.3362 17.9114 12.3519 17.8998 12.3519 17.9155ZM11.8722 18.0262C11.8917 18.0477 11.9032 18.0654 11.8978 18.0654C11.8925 18.0654 11.8721 18.0477 11.8526 18.0262C11.8331 18.0047 11.8216 17.987 11.827 17.987C11.8323 17.987 11.8527 18.0047 11.8722 18.0262ZM12.1953 18.0717C12.1953 18.0752 12.171 18.0995 12.1414 18.1256L12.0876 18.173L12.135 18.1192C12.1794 18.0689 12.1953 18.0564 12.1953 18.0717ZM11.9701 18.1241C11.9896 18.1456 12.0011 18.1633 11.9957 18.1633C11.9904 18.1633 11.97 18.1456 11.9505 18.1241C11.931 18.1026 11.9195 18.0849 11.9249 18.0849C11.9302 18.0849 11.9506 18.1026 11.9701 18.1241ZM4.83033 18.1502C4.84652 18.1697 4.84547 18.1763 4.8262 18.1763C4.812 18.1763 4.80039 18.1646 4.80039 18.1502C4.80039 18.1358 4.80225 18.1241 4.80452 18.1241C4.8068 18.1241 4.81841 18.1358 4.83033 18.1502ZM19.2415 18.1502C19.2577 18.1697 19.2567 18.1763 19.2374 18.1763C19.2232 18.1763 19.2116 18.1646 19.2116 18.1502C19.2116 18.1358 19.2134 18.1241 19.2157 18.1241C19.218 18.1241 19.2296 18.1358 19.2415 18.1502ZM12.0894 18.2465C12.1267 18.2904 12.1266 18.2905 12.0863 18.2565C12.0539 18.2292 12.0405 18.2273 12.0188 18.2467C11.9957 18.2672 11.9955 18.2657 12.0175 18.2367C12.0495 18.1944 12.0448 18.1937 12.0894 18.2465ZM12.1855 18.3395C12.205 18.361 12.2165 18.3786 12.2111 18.3786C12.2057 18.3786 12.1854 18.361 12.1659 18.3395C12.1464 18.3179 12.1349 18.3003 12.1403 18.3003C12.1456 18.3003 12.166 18.3179 12.1855 18.3395ZM11.882 18.3854C11.882 18.3891 11.8621 18.4089 11.8379 18.4295L11.7939 18.4668L11.8312 18.4227C11.8662 18.3813 11.882 18.3697 11.882 18.3854ZM4.57849 18.4056C4.57849 18.4097 4.56306 18.4251 4.54422 18.4399C4.51317 18.4642 4.51248 18.4635 4.53682 18.4325C4.56241 18.3999 4.57849 18.3895 4.57849 18.4056ZM12.3421 18.4961C12.3616 18.5177 12.3732 18.5353 12.3678 18.5353C12.3624 18.5353 12.342 18.5177 12.3225 18.4961C12.3031 18.4746 12.2915 18.457 12.2969 18.457C12.3023 18.457 12.3226 18.4746 12.3421 18.4961ZM11.7253 18.542C11.7253 18.5458 11.7055 18.5656 11.6813 18.5861L11.6372 18.6234L11.6745 18.5793C11.7096 18.5379 11.7253 18.5264 11.7253 18.542ZM12.4988 18.6528C12.5182 18.6743 12.5298 18.6919 12.5244 18.6919C12.519 18.6919 12.4987 18.6743 12.4792 18.6528C12.4597 18.6312 12.4482 18.6136 12.4535 18.6136C12.4589 18.6136 12.4793 18.6312 12.4988 18.6528ZM11.5687 18.6987C11.5687 18.7024 11.5489 18.7222 11.5246 18.7427L11.4806 18.78L11.5179 18.736C11.5529 18.6946 11.5687 18.683 11.5687 18.6987ZM8.14212 19.5535V19.9646H8.53373H8.92534V19.5535V19.1423H8.53373H8.14212V19.5535ZM10.4535 19.5539L10.4549 19.9654L10.8503 19.9602L11.2456 19.9549V19.5535V19.1521L11.1895 19.1457C11.1496 19.1411 11.1158 19.1552 11.0721 19.1946L11.0108 19.25L11.0582 19.1961L11.1056 19.1423H10.7788H10.452L10.4535 19.5539ZM12.7631 19.5535V19.9646H13.1547C13.3701 19.9646 13.5469 19.958 13.5476 19.95C13.5601 19.8055 13.5508 19.7276 13.5162 19.6869L13.4778 19.6416L13.5204 19.6775C13.5617 19.7124 13.5627 19.7124 13.5561 19.6775C13.5524 19.6577 13.5487 19.5292 13.5478 19.3919L13.5463 19.1423H13.2692H12.992L13.0292 19.1863L13.0663 19.2304L13.0162 19.1863C12.9781 19.1527 12.942 19.1423 12.8646 19.1423H12.7631V19.5535ZM15.0736 19.5535V19.9646H15.4652H15.8568V19.5535V19.1423H15.4652H15.0736V19.5535ZM13.1253 19.2793C13.1448 19.3009 13.1564 19.3185 13.151 19.3185C13.1456 19.3185 13.1252 19.3009 13.1058 19.2793C13.0863 19.2578 13.0747 19.2402 13.0801 19.2402C13.0855 19.2402 13.1059 19.2578 13.1253 19.2793ZM10.9421 19.3252C10.9421 19.329 10.9223 19.3488 10.8981 19.3693L10.854 19.4066L10.8913 19.3626C10.9264 19.3212 10.9421 19.3096 10.9421 19.3252ZM13.282 19.436C13.3015 19.4575 13.313 19.4751 13.3076 19.4751C13.3022 19.4751 13.2819 19.4575 13.2624 19.436C13.2429 19.4144 13.2314 19.3968 13.2368 19.3968C13.2421 19.3968 13.2625 19.4144 13.282 19.436ZM10.7855 19.4819C10.7855 19.4856 10.7656 19.5054 10.7414 19.5259L10.6974 19.5632L10.7347 19.5192C10.7697 19.4778 10.7855 19.4662 10.7855 19.4819ZM13.4386 19.5926C13.4581 19.6142 13.4697 19.6318 13.4643 19.6318C13.4589 19.6318 13.4385 19.6142 13.419 19.5926C13.3996 19.5711 13.388 19.5535 13.3934 19.5535C13.3988 19.5535 13.4191 19.5711 13.4386 19.5926ZM20.7153 19.6269C20.7396 19.6579 20.7389 19.6586 20.7079 19.6343C20.6752 19.6087 20.6649 19.5926 20.681 19.5926C20.685 19.5926 20.7005 19.608 20.7153 19.6269ZM10.6288 19.6385C10.6288 19.6423 10.609 19.6621 10.5848 19.6826L10.5407 19.7199L10.578 19.6758C10.6131 19.6344 10.6288 19.6229 10.6288 19.6385ZM13.9086 20.0625C13.928 20.0841 13.9396 20.1017 13.9342 20.1017C13.9288 20.1017 13.9085 20.0841 13.889 20.0625C13.8695 20.041 13.8579 20.0234 13.8633 20.0234C13.8687 20.0234 13.8891 20.041 13.9086 20.0625ZM10.1589 20.1085C10.1589 20.1122 10.1391 20.132 10.1149 20.1525L10.0708 20.1898L10.1081 20.1458C10.1431 20.1044 10.1589 20.0928 10.1589 20.1085ZM21.2635 20.1751C21.2879 20.2062 21.2872 20.2069 21.2561 20.1825C21.2373 20.1678 21.2218 20.1523 21.2218 20.1483C21.2218 20.1322 21.2379 20.1425 21.2635 20.1751ZM17.1785 20.2192C17.1718 20.23 17.1757 20.2388 17.1871 20.2388C17.1985 20.2388 17.2079 20.23 17.2079 20.2192C17.2079 20.2084 17.204 20.1996 17.1992 20.1996C17.1945 20.1996 17.1851 20.2084 17.1785 20.2192ZM0.544922 21.0793V21.7436L11.9995 21.7442L23.454 21.7449V21.0799V20.415H11.9995H0.544922V21.0793Z" fill="#727272"/>
</svg>
